…
dis_made = total %>%
  filter(shot_made_flag == 'made shot') %>%
  group_by(shot_distance) %>%
  count(shot_type) %>%
  summarise(made = sum(n))

dis_made
```

```
## # A tibble: 35 x 2
##    shot_distance  made
##            <int> <int>
##  1             0   344
##  2             1   262
##  3             2   151
##  4             3    31
##  5             4    23
##  6             5    12
##  7             6    19
##  8             7    17
##  9             8    19
## 10             9    17
## # ... with 25 more rows
```

```r
dis_total = total %>%
  filter(shot_made_flag == 'made shot') %>%
  group_by(shot_distance) %>%
  summarise(made = n())

dis_total
```

```
## # A tibble: 35 x 2
##    shot_distance  made
##            <int> <int>
##  1             0   344
##  2             1   262
##  3             2   151
##  4             3    31
##  5             4    23
##  6             5    12
##  7             6    19
##  8             7    17
##  9             8    19
## 10             9    17
## # ... with 25 more rows
```
…
```r
shot_distance_prop = select(shot_distance, shot_distance, made_shot_prop)
shot_distance_prop
```

```
## # A tibble: 35 x 2
##    shot_distance made_shot_prop
##            <int>          <dbl>
##  1             0        0.275  
##  2             1        0.215  
##  3             2        0.165  
##  4             3        0.0536 
##  5             4        0.0620 
##  6             5        0.00960
##  7             6        0.0156 
##  8             7        0.0186 
##  9             8        0.0329 
## 10             9        0.0458 
## # ... with 25 more rows
```
…
```r
pic4 = total %>%
  select(minute, name, new) %>%
  group_by(minute, name) %>%
  count(new) %>%
  select(minute, name, n) %>%
  group_by(name, minute)


pic4 
```

```
## # A tibble: 233 x 3
## # Groups:   name, minute [233]
##    minute name               n
##     <dbl> <chr>          <int>
##  1   1.00 Draymond-Green    18
##  2   1.00 Kevin-Durant      31
##  3   1.00 Klay-Thompson     35
##  4   1.00 Stephen-Curry     21
##  5   2.00 Draymond-Green    10
##  6   2.00 Kevin-Durant      26
##  7   2.00 Klay-Thompson     42
##  8   2.00 Stephen-Curry     28
##  9   3.00 Draymond-Green    21
## 10   3.00 Kevin-Durant      26
## # ... with 223 more rows
```
…
